{

    "browserify": {
        "options": {
            "debug": false,
            "transform": [
                "jstify",
                "coffeeify"
            ],
            "main" : "./app/main.coffee"
        }
    },

    "js": {
        "dest": "dist/js/",
        "outputTarget": "main.js"
    },

    "less": {
        "bootstrap": "node_modules/bootstrap/less",
        "src": "less/main.less",
        "dest": "dist/css/",
        "sourcemap": "./"
    }
}
